{
  "href": "https://api-global-points.easypack24.net/v1/points",
  "count": 723,
  "page": 1,
  "per_page": 1,
  "total_pages": 723,
  "items": [
    {
      "href": "https://api-global-points.easypack24.net/v1/points/PL/AST01G",
      "country": "PL",
      "name": "AST01G",
      "type": [
        "parcel_locker"
      ],
      "status": "Operating",
      "location": {
        "longitude": 21.46969,
        "latitude": 51.52526
      },
      "location_type": "Outdoor",
      "location_category": "Generic",
      "location_date": null,
      "location_description": "Przy sklepie",
      "location_description_1": null,
      "location_description_2": null,
      "distance": null,
      "opening_hours": "24/7",
      "address": {
        "line1": "Augustów 74",
        "line2": "26-670 Augustów"
      },
      "address_details": {
        "city": "Augustów",
        "province": "mazowieckie",
        "post_code": "26-670",
        "street": "Augustów",
        "building_number": "74",
        "flat_number": null
      },
      "phone_number": null,
      "payment_point_descr": "Płatność apką InPost oraz PayByLink",
      "functions": [
        "allegro_courier_collect",
        "allegro_courier_reverse_return_send",
        "allegro_courier_send",
        "allegro_letter_reverse_return_send",
        "allegro_letter_send",
        "allegro_parcel_collect",
        "allegro_parcel_reverse_return_send",
        "allegro_parcel_send",
        "cross_network_parcel_collect",
        "cross_network_parcel_send",
        "parcel",
        "parcel_collect",
        "parcel_reverse_return_send",
        "parcel_send",
        "standard_courier_reverse_return_send",
        "standard_courier_send"
      ],
      "partner_id": 0,
      "is_next": false,
      "payment_available": true,
      "payment_type": {
        "0": "Payments are not supported"
      },
      "virtual": "0",
      "recommended_low_interest_box_machines_list": null,
      "apm_doubled": null,
      "location_247": true,
      "operating_hours_extended": {
        "customer": null
      },
      "agency": "RDM",
      "agencies_extended": [
        {
          "name": "RDM"
        }
      ],
      "image_url": "https://static.easypack24.net/points/pl/images/AST01G.jpg",
      "easy_access_zone": true,
      "air_index_level": null,
      "physical_type": "classic",
      "physical_type_mapped": "002",
      "physical_type_description": null,
      "in_mobile_collect_excluded": null,
      "in_mobile_send_excluded": null,
      "in_mobile_return_excluded": null,
      "express_delivery_send": false,
      "express_delivery_collect": false,
      "delivery_area_id": "M26",
      "micro_area_id": "M26D",
      "agency_code": "RDM",
      "d2d_courier_area": "Q54",
      "d2d_courier_micro_area": "Q54K",
      "locker_availability": {
        "status": "NO_DATA",
        "details": {
          "A": "NO_DATA",
          "B": "NO_DATA",
          "C": "NO_DATA"
        }
      },
      "supported_locker_temperatures": null,
      "unavailability_periods": [],
      "mondial_relay_id": "10069",
      "print_in_store": null
    }
  ],
  "meta": {
    "href": "https://api-global-points.easypack24.net/v1/points",
    "count": 723,
    "page": 1,
    "per_page": 1,
    "total_pages": 723
  }
}