{
  "href": "https://api-global-points.easypack24.net/v1/points",
  "count": 561,
  "page": 1,
  "per_page": 5,
  "total_pages": 113,
  "items": [
    {
      "href": "https://api-global-points.easypack24.net/v1/points/PL/BAT01APP",
      "country": "PL",
      "name": "BAT01APP",
      "type": [
        "parcel_locker"
      ],
      "status": "Created",
      "location": {
        "longitude": 0.0,
        "latitude": 0.0
      },
      "location_type": "Outdoor",
      "location_category": "Generic",
      "location_date": null,
      "location_description": "TEST",
      "location_description_1": null,
      "location_description_2": "TEST",
      "distance": null,
      "opening_hours": "24/7",
      "address": {
        "line1": "TEST TEST",
        "line2": "TEST TEST"
      },
      "address_details": {
        "city": "TEST",
        "province": "TEST",
        "post_code": "TEST",
        "street": "TEST",
        "building_number": "TEST",
        "flat_number": null
      },
      "phone_number": null,
      "payment_point_descr": "TEST",
      "functions": [
        "allegro_courier_collect",
        "allegro_courier_reverse_return_send",
        "allegro_courier_send",
        "allegro_letter_reverse_return_send",
        "allegro_letter_send",
        "allegro_parcel_collect",
        "allegro_parcel_reverse_return_send",
        "allegro_parcel_send",
        "parcel",
        "parcel_collect",
        "parcel_reverse_return_send",
        "parcel_send",
        "standard_courier_reverse_return_send",
        "standard_courier_send"
      ],
      "partner_id": 0,
      "is_next": false,
      "payment_available": true,
      "payment_type": {
        "0": "Payments are not supported"
      },
      "virtual": "0",
      "recommended_low_interest_box_machines_list": null,
      "apm_doubled": null,
      "location_247": true,
      "operating_hours_extended": {
        "customer": null
      },
      "agency": "KRA",
      "agencies_extended": [
        {
          "name": "KRA"
        }
      ],
      "image_url": "https://static.easypack24.net/points/pl/images/BAT01APP.jpg",
      "easy_access_zone": true,
      "air_index_level": null,
      "physical_type": "screenless",
      "physical_type_mapped": "006",
      "physical_type_description": null,
      "in_mobile_collect_excluded": null,
      "in_mobile_send_excluded": null,
      "in_mobile_return_excluded": null,
      "express_delivery_send": false,
      "express_delivery_collect": false,
      "delivery_area_id": null,
      "micro_area_id": null,
      "agency_code": null,
      "d2d_courier_area": null,
      "d2d_courier_micro_area": null,
      "locker_availability": {
        "status": "NO_DATA",
        "details": {
          "A": "NO_DATA",
          "B": "NO_DATA",
          "C": "NO_DATA"
        }
      },
      "supported_locker_temperatures": null,
      "unavailability_periods": [],
      "mondial_relay_id": "40004",
      "print_in_store": null
    },
    {
      "href": "https://api-global-points.easypack24.net/v1/points/PL/BBI01E",
      "country": "PL",
      "name": "BBI01E",
      "type": [
        "parcel_locker"
      ],
      "status": "Created",
      "location": {
        "longitude": 0.0,
        "latitude": 0.0
      },
      "location_type": "Outdoor",
      "location_category": "Generic",
      "location_date": null,
      "location_description": "TEST",
      "location_description_1": null,
      "location_description_2": "TEST",
      "distance": null,
      "opening_hours": "24/7",
      "address": {
        "line1": "TEST TEST",
        "line2": "TEST TEST"
      },
      "address_details": {
        "city": "TEST",
        "province": "TEST",
        "post_code": "TEST",
        "street": "TEST",
        "building_number": "TEST",
        "flat_number": null
      },
      "phone_number": null,
      "payment_point_descr": "TEST",
      "functions": [
        "allegro_courier_collect",
        "allegro_courier_reverse_return_send",
        "allegro_courier_send",
        "allegro_letter_reverse_return_send",
        "allegro_letter_send",
        "allegro_parcel_collect",
        "allegro_parcel_reverse_return_send",
        "allegro_parcel_send",
        "parcel",
        "parcel_collect",
        "parcel_reverse_return_send",
        "parcel_send",
        "standard_courier_reverse_return_send",
        "standard_courier_send"
      ],
      "partner_id": 0,
      "is_next": false,
      "payment_available": true,
      "payment_type": {
        "0": "Payments are not supported"
      },
      "virtual": "0",
      "recommended_low_interest_box_machines_list": null,
      "apm_doubled": null,
      "location_247": true,
      "operating_hours_extended": {
        "customer": null
      },
      "agency": "IPMXXX",
      "agencies_extended": [
        {
          "name": "IPMXXX"
        }
      ],
      "image_url": "https://static.easypack24.net/points/pl/images/BBI01E.jpg",
      "easy_access_zone": true,
      "air_index_level": null,
      "physical_type": "newfm",
      "physical_type_mapped": "004",
      "physical_type_description": null,
      "in_mobile_collect_excluded": false,
      "in_mobile_send_excluded": false,
      "in_mobile_return_excluded": false,
      "express_delivery_send": false,
      "express_delivery_collect": false,
      "delivery_area_id": null,
      "micro_area_id": null,
      "agency_code": null,
      "d2d_courier_area": null,
      "d2d_courier_micro_area": null,
      "locker_availability": {
        "status": "NO_DATA",
        "details": {
          "A": "NO_DATA",
          "B": "NO_DATA",
          "C": "NO_DATA"
        }
      },
      "supported_locker_temperatures": null,
      "unavailability_periods": null,
      "mondial_relay_id": "",
      "print_in_store": null
    },
    {
      "href": "https://api-global-points.easypack24.net/v1/points/PL/BBI05APP",
      "country": "PL",
      "name": "BBI05APP",
      "type": [
        "parcel_locker"
      ],
      "status": "Created",
      "location": {
        "longitude": 0.0,
        "latitude": 0.0
      },
      "location_type": "Outdoor",
      "location_category": "Generic",
      "location_date": null,
      "location_description": "TEST",
      "location_description_1": null,
      "location_description_2": "TEST",
      "distance": null,
      "opening_hours": "24/7",
      "address": {
        "line1": "TEST TEST",
        "line2": "TEST TEST"
      },
      "address_details": {
        "city": "TEST",
        "province": "TEST",
        "post_code": "TEST",
        "street": "TEST",
        "building_number": "TEST",
        "flat_number": null
      },
      "phone_number": null,
      "payment_point_descr": "TEST",
      "functions": [
        "allegro_courier_collect",
        "allegro_courier_reverse_return_send",
        "allegro_courier_send",
        "allegro_letter_reverse_return_send",
        "allegro_letter_send",
        "allegro_parcel_collect",
        "allegro_parcel_reverse_return_send",
        "allegro_parcel_send",
        "parcel",
        "parcel_collect",
        "parcel_reverse_return_send",
        "parcel_send",
        "standard_courier_reverse_return_send",
        "standard_courier_send"
      ],
      "partner_id": 0,
      "is_next": false,
      "payment_available": true,
      "payment_type": {
        "0": "Payments are not supported"
      },
      "virtual": "0",
      "recommended_low_interest_box_machines_list": null,
      "apm_doubled": null,
      "location_247": true,
      "operating_hours_extended": {
        "customer": null
      },
      "agency": "BBA",
      "agencies_extended": [
        {
          "name": "BBA"
        }
      ],
      "image_url": "https://static.easypack24.net/points/pl/images/BBI05APP.jpg",
      "easy_access_zone": true,
      "air_index_level": null,
      "physical_type": "screenless",
      "physical_type_mapped": "006",
      "physical_type_description": null,
      "in_mobile_collect_excluded": null,
      "in_mobile_send_excluded": null,
      "in_mobile_return_excluded": null,
      "express_delivery_send": false,
      "express_delivery_collect": false,
      "delivery_area_id": null,
      "micro_area_id": null,
      "agency_code": null,
      "d2d_courier_area": null,
      "d2d_courier_micro_area": null,
      "locker_availability": {
        "status": "NO_DATA",
        "details": {
          "A": "NO_DATA",
          "B": "NO_DATA",
          "C": "NO_DATA"
        }
      },
      "supported_locker_temperatures": null,
      "unavailability_periods": [],
      "mondial_relay_id": "40009",
      "print_in_store": null
    },
    {
      "href": "https://api-global-points.easypack24.net/v1/points/PL/BED03BAPP",
      "country": "PL",
      "name": "BED03BAPP",
      "type": [
        "parcel_locker"
      ],
      "status": "Created",
      "location": {
        "longitude": 0.0,
        "latitude": 0.0
      },
      "location_type": "Outdoor",
      "location_category": "Generic",
      "location_date": null,
      "location_description": "TEST",
      "location_description_1": null,
      "location_description_2": "TEST",
      "distance": null,
      "opening_hours": "24/7",
      "address": {
        "line1": "TEST TEST",
        "line2": "TEST TEST"
      },
      "address_details": {
        "city": "TEST",
        "province": "TEST",
        "post_code": "TEST",
        "street": "TEST",
        "building_number": "TEST",
        "flat_number": null
      },
      "phone_number": null,
      "payment_point_descr": "TEST",
      "functions": [
        "allegro_courier_collect",
        "allegro_courier_reverse_return_send",
        "allegro_courier_send",
        "allegro_letter_reverse_return_send",
        "allegro_letter_send",
        "allegro_parcel_collect",
        "allegro_parcel_reverse_return_send",
        "allegro_parcel_send",
        "parcel",
        "parcel_collect",
        "parcel_reverse_return_send",
        "parcel_send",
        "standard_courier_reverse_return_send",
        "standard_courier_send"
      ],
      "partner_id": 0,
      "is_next": false,
      "payment_available": true,
      "payment_type": {
        "0": "Payments are not supported"
      },
      "virtual": "0",
      "recommended_low_interest_box_machines_list": null,
      "apm_doubled": null,
      "location_247": true,
      "operating_hours_extended": {
        "customer": null
      },
      "agency": "KT4",
      "agencies_extended": [
        {
          "name": "KT4"
        }
      ],
      "image_url": "https://static.easypack24.net/points/pl/images/BED03BAPP.jpg",
      "easy_access_zone": true,
      "air_index_level": null,
      "physical_type": "screenless",
      "physical_type_mapped": "006",
      "physical_type_description": null,
      "in_mobile_collect_excluded": null,
      "in_mobile_send_excluded": null,
      "in_mobile_return_excluded": null,
      "express_delivery_send": false,
      "express_delivery_collect": false,
      "delivery_area_id": null,
      "micro_area_id": null,
      "agency_code": null,
      "d2d_courier_area": null,
      "d2d_courier_micro_area": null,
      "locker_availability": {
        "status": "NO_DATA",
        "details": {
          "A": "NO_DATA",
          "B": "NO_DATA",
          "C": "NO_DATA"
        }
      },
      "supported_locker_temperatures": null,
      "unavailability_periods": [],
      "mondial_relay_id": "40022",
      "print_in_store": null
    },
    {
      "href": "https://api-global-points.easypack24.net/v1/points/PL/BEN01APP",
      "country": "PL",
      "name": "BEN01APP",
      "type": [
        "parcel_locker"
      ],
      "status": "Created",
      "location": {
        "longitude": 0.0,
        "latitude": 0.0
      },
      "location_type": "Outdoor",
      "location_category": "Generic",
      "location_date": null,
      "location_description": "TEST",
      "location_description_1": null,
      "location_description_2": "TEST",
      "distance": null,
      "opening_hours": "24/7",
      "address": {
        "line1": "TEST TEST",
        "line2": "TEST TEST"
      },
      "address_details": {
        "city": "TEST",
        "province": "TEST",
        "post_code": "TEST",
        "street": "TEST",
        "building_number": "TEST",
        "flat_number": null
      },
      "phone_number": null,
      "payment_point_descr": "TEST",
      "functions": [
        "allegro_courier_collect",
        "allegro_courier_reverse_return_send",
        "allegro_courier_send",
        "allegro_letter_reverse_return_send",
        "allegro_letter_send",
        "allegro_parcel_collect",
        "allegro_parcel_reverse_return_send",
        "allegro_parcel_send",
        "parcel",
        "parcel_collect",
        "parcel_reverse_return_send",
        "parcel_send",
        "standard_courier_reverse_return_send",
        "standard_courier_send"
      ],
      "partner_id": 0,
      "is_next": false,
      "payment_available": true,
      "payment_type": {
        "0": "Payments are not supported"
      },
      "virtual": "0",
      "recommended_low_interest_box_machines_list": null,
      "apm_doubled": null,
      "location_247": true,
      "operating_hours_extended": {
        "customer": null
      },
      "agency": "RZE",
      "agencies_extended": [
        {
          "name": "RZE"
        }
      ],
      "image_url": "https://static.easypack24.net/points/pl/images/BEN01APP.jpg",
      "easy_access_zone": true,
      "air_index_level": null,
      "physical_type": "screenless",
      "physical_type_mapped": "006",
      "physical_type_description": null,
      "in_mobile_collect_excluded": null,
      "in_mobile_send_excluded": null,
      "in_mobile_return_excluded": null,
      "express_delivery_send": false,
      "express_delivery_collect": false,
      "delivery_area_id": null,
      "micro_area_id": null,
      "agency_code": null,
      "d2d_courier_area": null,
      "d2d_courier_micro_area": null,
      "locker_availability": {
        "status": "NO_DATA",
        "details": {
          "A": "NO_DATA",
          "B": "NO_DATA",
          "C": "NO_DATA"
        }
      },
      "supported_locker_temperatures": null,
      "unavailability_periods": [],
      "mondial_relay_id": "40027",
      "print_in_store": null
    }
  ],
  "meta": {
    "href": "https://api-global-points.easypack24.net/v1/points",
    "count": 561,
    "page": 1,
    "per_page": 5,
    "total_pages": 113
  }
}