{
  "href": "https://api-global-points.easypack24.net/v1/points",
  "count": 809,
  "page": 1,
  "per_page": 1,
  "total_pages": 809,
  "items": [
    {
      "href": "https://api-global-points.easypack24.net/v1/points/PL/KRA01A",
      "country": "PL",
      "name": "KRA01A",
      "type": [
        "parcel_locker"
      ],
      "status": "Operating",
      "location": {
        "longitude": 20.01915,
        "latitude": 50.08581
      },
      "location_type": "Outdoor",
      "location_category": "Generic",
      "location_date": null,
      "location_description": "Przy DH Wanda",
      "location_description_1": null,
      "location_description_2": null,
      "distance": null,
      "opening_hours": "24/7",
      "address": {
        "line1": "Władysława Broniewskiego 1",
        "line2": "31-801 Kraków"
      },
      "address_details": {
        "city": "Kraków",
        "province": "małopolskie",
        "post_code": "31-801",
        "street": "Władysława Broniewskiego",
        "building_number": "1",
        "flat_number": null
      },
      "phone_number": null,
      "payment_point_descr": "Płatność apką InPost oraz PayByLink",
      "functions": [
        "allegro_courier_collect",
        "allegro_courier_reverse_return_send",
        "allegro_courier_send",
        "allegro_letter_send",
        "allegro_parcel_collect",
        "allegro_parcel_reverse_return_send",
        "allegro_parcel_send",
        "cross_network_parcel_collect",
        "cross_network_parcel_send",
        "parcel",
        "parcel_collect",
        "parcel_reverse_return_send",
        "parcel_send",
        "standard_courier_reverse_return_send",
        "standard_courier_send"
      ],
      "partner_id": 0,
      "is_next": false,
      "payment_available": true,
      "payment_type": {
        "0": "Payments are not supported"
      },
      "virtual": "0",
      "recommended_low_interest_box_machines_list": [
        "KRA12N",
        "KRA206M",
        "KRA62N",
        "KRA37N",
        "KRA58BAPP"
      ],
      "apm_doubled": "KRA12N",
      "location_247": true,
      "operating_hours_extended": {
        "customer": null
      },
      "agency": "KRA",
      "agencies_extended": [
        {
          "name": "KRA"
        }
      ],
      "image_url": "https://static.easypack24.net/points/pl/images/KRA01A.jpg",
      "easy_access_zone": true,
      "air_index_level": null,
      "physical_type": "modular",
      "physical_type_mapped": "003",
      "physical_type_description": null,
      "in_mobile_collect_excluded": null,
      "in_mobile_send_excluded": null,
      "in_mobile_return_excluded": null,
      "express_delivery_send": false,
      "express_delivery_collect": false,
      "delivery_area_id": "M24",
      "micro_area_id": "M24C",
      "agency_code": "KRA",
      "d2d_courier_area": "B31",
      "d2d_courier_micro_area": "B31F",
      "locker_availability": {
        "status": "NO_DATA",
        "details": {
          "A": "NO_DATA",
          "B": "NO_DATA",
          "C": "NO_DATA"
        }
      },
      "supported_locker_temperatures": null,
      "unavailability_periods": [],
      "mondial_relay_id": "16297",
      "print_in_store": null
    }
  ],
  "meta": {
    "href": "https://api-global-points.easypack24.net/v1/points",
    "count": 809,
    "page": 1,
    "per_page": 1,
    "total_pages": 809
  }
}