{
  "href": "https://api-global-points.easypack24.net/v1/points",
  "count": 34006,
  "page": 1,
  "per_page": 1,
  "total_pages": 34006,
  "items": [
    {
      "name": "ADA01M",
      "location": {
        "longitude": 22.26405,
        "latitude": 51.73834
      }
    }
  ],
  "meta": {
    "href": "https://api-global-points.easypack24.net/v1/points",
    "count": 34006,
    "page": 1,
    "per_page": 1,
    "total_pages": 34006
  }
}