{
  "href": "https://api-global-points.easypack24.net/v1/points",
  "count": 14713,
  "page": 1,
  "per_page": 1,
  "total_pages": 14713,
  "items": [
    {
      "href": "https://api-global-points.easypack24.net/v1/points/ES/ES000027",
      "country": "ES",
      "name": "ES000027",
      "type": [
        "pok",
        "pop"
      ],
      "status": "Operating",
      "location": {
        "longitude": 2.20323,
        "latitude": 41.42451
      },
      "location_type": "Outdoor",
      "location_category": "Generic",
      "location_date": null,
      "location_description": null,
      "location_description_1": "EL TEU ESTANC",
      "location_description_2": null,
      "distance": null,
      "opening_hours": "L/Ma/Me/J/V 8-14 16:30-20:30,S 8:30-14",
      "address": {
        "line1": "CARRER DE BINEFAR 3",
        "line2": "08020 BARCELONA"
      },
      "address_details": {
        "city": "BARCELONA",
        "province": "Barcelona",
        "post_code": "08020",
        "street": "CARRER DE BINEFAR 3",
        "building_number": null,
        "flat_number": null
      },
      "phone_number": null,
      "payment_point_descr": "Payment unavailable",
      "functions": [
        "cross_network_parcel_collect",
        "cross_network_parcel_send",
        "parcel",
        "parcel_collect",
        "parcel_reverse_return_send",
        "parcel_send",
        "standard_courier_collect",
        "standard_courier_reverse_return_send",
        "standard_courier_send",
        "standard_letter_collect",
        "standard_letter_send"
      ],
      "partner_id": 99,
      "is_next": false,
      "payment_available": false,
      "payment_type": {
        "0": "Payments are not supported"
      },
      "virtual": "3",
      "recommended_low_interest_box_machines_list": null,
      "apm_doubled": null,
      "location_247": false,
      "operating_hours_extended": {
        "customer": {
          "monday": [
            {
              "start": 480,
              "end": 840
            },
            {
              "start": 990,
              "end": 1230
            }
          ],
          "tuesday": [
            {
              "start": 480,
              "end": 840
            },
            {
              "start": 990,
              "end": 1230
            }
          ],
          "wednesday": [
            {
              "start": 480,
              "end": 840
            },
            {
              "start": 990,
              "end": 1230
            }
          ],
          "thursday": [
            {
              "start": 480,
              "end": 840
            },
            {
              "start": 990,
              "end": 1230
            }
          ],
          "friday": [
            {
              "start": 480,
              "end": 840
            },
            {
              "start": 990,
              "end": 1230
            }
          ],
          "saturday": [
            {
              "start": 510,
              "end": 840
            }
          ],
          "sunday": []
        }
      },
      "agency": "4011",
      "agencies_extended": [
        {
          "name": "4011"
        }
      ],
      "image_url": "https://static.easypack24.net/points/es/images/ES000027.jpg",
      "easy_access_zone": false,
      "air_index_level": null,
      "physical_type": null,
      "physical_type_mapped": null,
      "physical_type_description": null,
      "in_mobile_collect_excluded": null,
      "in_mobile_send_excluded": null,
      "in_mobile_return_excluded": null,
      "express_delivery_send": false,
      "express_delivery_collect": false,
      "delivery_area_id": null,
      "micro_area_id": null,
      "agency_code": "4011",
      "d2d_courier_area": null,
      "d2d_courier_micro_area": null,
      "locker_availability": {
        "status": "NO_DATA",
        "details": {
          "A": "NO_DATA",
          "B": "NO_DATA",
          "C": "NO_DATA"
        }
      },
      "supported_locker_temperatures": null,
      "unavailability_periods": [
        {
          "start_time": "2025-12-07T23:00:00Z",
          "end_time": "2025-12-08T23:00:00Z"
        },
        {
          "start_time": "2025-12-25T23:00:00Z",
          "end_time": "2025-12-26T23:00:00Z"
        },
        {
          "start_time": "2026-04-05T22:00:00Z",
          "end_time": "2026-04-06T22:00:00Z"
        },
        {
          "start_time": "2026-05-24T22:00:00Z",
          "end_time": "2026-05-25T22:00:00Z"
        },
        {
          "start_time": "2026-06-23T22:00:00Z",
          "end_time": "2026-06-24T22:00:00Z"
        },
        {
          "start_time": "2026-09-10T22:00:00Z",
          "end_time": "2026-09-11T22:00:00Z"
        },
        {
          "start_time": "2026-09-23T22:00:00Z",
          "end_time": "2026-09-24T22:00:00Z"
        },
        {
          "start_time": "2026-12-25T23:00:00Z",
          "end_time": "2026-12-26T23:00:00Z"
        }
      ],
      "mondial_relay_id": "00027",
      "print_in_store": true
    }
  ],
  "meta": {
    "href": "https://api-global-points.easypack24.net/v1/points",
    "count": 14713,
    "page": 1,
    "per_page": 1,
    "total_pages": 14713
  }
}